<?xml version="1.0" encoding="utf-8"?>
<svg xmlns="http://www.w3.org/2000/svg" xmlns:xlink="http://www.w3.org/1999/xlink" style="margin: auto; background: none; display: block; shape-rendering: auto;" width="200px" height="200px" viewBox="0 0 100 100" preserveAspectRatio="xMidYMid">
<rect x="8.5" y="8.5" width="20" height="20" fill="#ed801e">
  <animate attributeName="fill" values="#aa418c;#ed801e;#ed801e" keyTimes="0;0.08333333333333333;1" dur="1.4285714285714284s" repeatCount="indefinite" begin="0s" calcMode="discrete"></animate>
</rect><rect x="29.5" y="8.5" width="20" height="20" fill="#ed801e">
  <animate attributeName="fill" values="#aa418c;#ed801e;#ed801e" keyTimes="0;0.08333333333333333;1" dur="1.4285714285714284s" repeatCount="indefinite" begin="0.11904761904761904s" calcMode="discrete"></animate>
</rect><rect x="50.5" y="8.5" width="20" height="20" fill="#ed801e">
  <animate attributeName="fill" values="#aa418c;#ed801e;#ed801e" keyTimes="0;0.08333333333333333;1" dur="1.4285714285714284s" repeatCount="indefinite" begin="0.23809523809523808s" calcMode="discrete"></animate>
</rect><rect x="71.5" y="8.5" width="20" height="20" fill="#ed801e">
  <animate attributeName="fill" values="#aa418c;#ed801e;#ed801e" keyTimes="0;0.08333333333333333;1" dur="1.4285714285714284s" repeatCount="indefinite" begin="0.35714285714285715s" calcMode="discrete"></animate>
</rect><rect x="8.5" y="29.5" width="20" height="20" fill="#ed801e">
  <animate attributeName="fill" values="#aa418c;#ed801e;#ed801e" keyTimes="0;0.08333333333333333;1" dur="1.4285714285714284s" repeatCount="indefinite" begin="1.3095238095238095s" calcMode="discrete"></animate>
</rect><rect x="71.5" y="29.5" width="20" height="20" fill="#ed801e">
  <animate attributeName="fill" values="#aa418c;#ed801e;#ed801e" keyTimes="0;0.08333333333333333;1" dur="1.4285714285714284s" repeatCount="indefinite" begin="0.47619047619047616s" calcMode="discrete"></animate>
</rect><rect x="8.5" y="50.5" width="20" height="20" fill="#ed801e">
  <animate attributeName="fill" values="#aa418c;#ed801e;#ed801e" keyTimes="0;0.08333333333333333;1" dur="1.4285714285714284s" repeatCount="indefinite" begin="1.1904761904761905s" calcMode="discrete"></animate>
</rect><rect x="71.5" y="50.5" width="20" height="20" fill="#ed801e">
  <animate attributeName="fill" values="#aa418c;#ed801e;#ed801e" keyTimes="0;0.08333333333333333;1" dur="1.4285714285714284s" repeatCount="indefinite" begin="0.5952380952380952s" calcMode="discrete"></animate>
</rect><rect x="8.5" y="71.5" width="20" height="20" fill="#ed801e">
  <animate attributeName="fill" values="#aa418c;#ed801e;#ed801e" keyTimes="0;0.08333333333333333;1" dur="1.4285714285714284s" repeatCount="indefinite" begin="1.0714285714285714s" calcMode="discrete"></animate>
</rect><rect x="29.5" y="71.5" width="20" height="20" fill="#ed801e">
  <animate attributeName="fill" values="#aa418c;#ed801e;#ed801e" keyTimes="0;0.08333333333333333;1" dur="1.4285714285714284s" repeatCount="indefinite" begin="0.9523809523809523s" calcMode="discrete"></animate>
</rect><rect x="50.5" y="71.5" width="20" height="20" fill="#ed801e">
  <animate attributeName="fill" values="#aa418c;#ed801e;#ed801e" keyTimes="0;0.08333333333333333;1" dur="1.4285714285714284s" repeatCount="indefinite" begin="0.8333333333333333s" calcMode="discrete"></animate>
</rect><rect x="71.5" y="71.5" width="20" height="20" fill="#ed801e">
  <animate attributeName="fill" values="#aa418c;#ed801e;#ed801e" keyTimes="0;0.08333333333333333;1" dur="1.4285714285714284s" repeatCount="indefinite" begin="0.7142857142857143s" calcMode="discrete"></animate>
</rect>
<!-- [ldio] generated by https://loading.io/ --></svg>